{
  "events": [
    {
      "id": 1,
      "title": "Beach Cleanup",
      "date": "Aug 28 2018",
      "time": "9:00",
      "location": "Daytona Beach",
      "description": "Let's clean up this beach.",
      "organizer": "Adam Jahr",
      "category": "sustainability",
      "attendees": 4
    },
    {
      "id": 2,
      "title": "Park Cleanup",
      "date": "Nov 12 2018",
      "time": "12:00",
      "location": "132 N Magnolia Street, Orlando, Florida",
      "description": "We're going to clean up this park.",
      "organizer": "Adam Jahr",
      "category": "nature",
      "attendees": 2
    },
    {
      "id": 3,
      "title": "Pet Adoption Day",
      "date": "Dec 2 2018",
      "time": "12:00",
      "location": "132 N Magnolia Street, Orlando, Florida",
      "description": "Help animals find new homes.",
      "organizer": "Gregg Pollack",
      "category": "animal welfare",
      "attendees": 3
    },
    {
      "category": "nature",
      "organizer": "Quan Nguyen",
      "title": "Plant Tree",
      "description": "planting tree",
      "location": "The forest",
      "date": "Oct 15 2021",
      "time": "8:00",
      "attendees": 5,
      "id": 4
    },
    {
      "category": "housing",
      "organizer": "Quan Nguyen",
      "title": "Clean House",
      "description": "Cleaning house",
      "location": "My house",
      "date": "Oct 16 2021",
      "time": "8:00",
      "attendees": 3,
      "id": 5
    },
    {
      "category": "food",
      "organizer": "Quan Nguyen",
      "title": "Cooking",
      "description": "Cooking BBQ",
      "location": "Yard",
      "date": "Oct 17 2021",
      "time": "16:00",
      "attendees": 2,
      "id": 6
    }
  ]
}